{
  "name": "CMS_Approvers",
  "description": "Robotic Enterprise Framework",
  "main": "Main.xaml",
  "dependencies": {
    "Microsoft.Activities.Extensions": "2.0.6.9",
    "UiPath.Credentials.Activities": "[1.1.6479.13204]",
    "UiPath.Database.Activities": "[1.2.6863.32528]",
    "UiPath.Excel.Activities": "[2.7.2]",
    "UiPath.FTP.Activities": "[1.0.7053.27728]",
    "UiPath.Mail.Activities": "[1.7.2]",
    "UiPath.PDF.Activities": "[3.1.0]",
    "UiPath.Python.Activities": "[1.1.6863.33404]",
    "UiPath.System.Activities": "[19.10.1]",
    "UiPath.Terminal.Activities": "[1.3.4]",
    "UiPath.UIAutomation.Activities": "[19.11.2]",
    "UiPath.WebAPI.Activities": "[1.4.4]",
    "UiPathTeam.Mail.Converter.Activities": "1.0.3"
  },
  "webServices": [],
  "schemaVersion": "4.0",
  "studioVersion": "19.10.4.0",
  "projectVersion": "1.0.7361.10792",
  "runtimeOptions": {
    "autoDispose": false,
    "isPausable": true,
    "requiresUserInteraction": true,
    "supportsPersistence": false,
    "excludedLoggedData": [
      "Private:*",
      "*password*"
    ],
    "executionType": "Workflow"
  },
  "designOptions": {
    "projectProfile": "Developement",
    "outputType": "Process",
    "libraryOptions": {
      "includeOriginalXaml": false,
      "privateWorkflows": []
    },
    "fileInfos": []
  },
  "arguments": {
    "input": [],
    "output": []
  },
  "expressionLanguage": "VisualBasic"
}